transcript
# Reading pref.tcl
# do run.do
# Model Technology ModelSim - Intel FPGA Edition vlog 2020.1 Compiler 2020.02 Feb 28 2020
# Start time: 08:38:35 on Jul 08,2024
# vlog -reportprogress 300 tb_EVM.v 
# -- Compiling module button_control
# -- Compiling module mode_control
# -- Compiling module Vote_Logger
# ** Error: ** while parsing file included at tb_EVM.v(1)
# ** at EVM_design.v(65): (vlog-2110) Illegal reference to net "cand1_valid_vote".
# ** Error: ** while parsing file included at tb_EVM.v(1)
# ** at EVM_design.v(66): (vlog-2110) Illegal reference to net "cand2_valid_vote".
# ** Error: ** while parsing file included at tb_EVM.v(1)
# ** at EVM_design.v(67): (vlog-2110) Illegal reference to net "cand3_valid_vote".
# ** Error: ** while parsing file included at tb_EVM.v(1)
# ** at EVM_design.v(68): (vlog-2110) Illegal reference to net "cand4_valid_vote".
# -- Compiling module voting_machine
# -- Compiling module tb
# ** Error: (vlog-13069) tb_EVM.v(43): syntax error, unexpected STRING_LITERAL, expecting ')' or ','.
# End time: 08:38:35 on Jul 08,2024, Elapsed time: 0:00:00
# Errors: 5, Warnings: 0
# ** Error: D:/modelsim_ase/win32aloem/vlog failed.
# Error in macro ./run.do line 2
# D:/modelsim_ase/win32aloem/vlog failed.
#     while executing
# "vlog tb_EVM.v"
do run.do
# ** Warning: (vlib-34) Library already exists at "work".
# Model Technology ModelSim - Intel FPGA Edition vlog 2020.1 Compiler 2020.02 Feb 28 2020
# Start time: 08:44:11 on Jul 08,2024
# vlog -reportprogress 300 tb_EVM.v 
# -- Compiling module button_control
# -- Compiling module mode_control
# -- Compiling module Vote_Logger
# ** Error: ** while parsing file included at tb_EVM.v(1)
# ** at EVM_design.v(70): (vlog-2110) Illegal reference to net "cand1_valid_vote".
# ** Error: ** while parsing file included at tb_EVM.v(1)
# ** at EVM_design.v(71): (vlog-2110) Illegal reference to net "cand2_valid_vote".
# ** Error: ** while parsing file included at tb_EVM.v(1)
# ** at EVM_design.v(72): (vlog-2110) Illegal reference to net "cand3_valid_vote".
# ** Error: ** while parsing file included at tb_EVM.v(1)
# ** at EVM_design.v(73): (vlog-2110) Illegal reference to net "cand4_valid_vote".
# -- Compiling module voting_machine
# -- Compiling module tb
# ** Error: (vlog-13069) tb_EVM.v(43): syntax error, unexpected STRING_LITERAL, expecting ')' or ','.
# End time: 08:44:11 on Jul 08,2024, Elapsed time: 0:00:00
# Errors: 5, Warnings: 0
# ** Error: D:/modelsim_ase/win32aloem/vlog failed.
# Error in macro ./run.do line 2
# D:/modelsim_ase/win32aloem/vlog failed.
#     while executing
# "vlog tb_EVM.v"
do run.do
# ** Warning: (vlib-34) Library already exists at "work".
# Model Technology ModelSim - Intel FPGA Edition vlog 2020.1 Compiler 2020.02 Feb 28 2020
# Start time: 08:53:26 on Jul 08,2024
# vlog -reportprogress 300 tb_EVM.v 
# -- Compiling module button_control
# -- Compiling module mode_control
# -- Compiling module Vote_Logger
# -- Compiling module voting_machine
# -- Compiling module tb
# ** Error: (vlog-13069) tb_EVM.v(43): syntax error, unexpected STRING_LITERAL, expecting ')' or ','.
# End time: 08:53:26 on Jul 08,2024, Elapsed time: 0:00:00
# Errors: 1, Warnings: 0
# ** Error: D:/modelsim_ase/win32aloem/vlog failed.
# Error in macro ./run.do line 2
# D:/modelsim_ase/win32aloem/vlog failed.
#     while executing
# "vlog tb_EVM.v"
do run.do
# ** Warning: (vlib-34) Library already exists at "work".
# Model Technology ModelSim - Intel FPGA Edition vlog 2020.1 Compiler 2020.02 Feb 28 2020
# Start time: 08:54:05 on Jul 08,2024
# vlog -reportprogress 300 tb_EVM.v 
# -- Compiling module button_control
# -- Compiling module mode_control
# -- Compiling module Vote_Logger
# -- Compiling module voting_machine
# -- Compiling module tb
# ** Error: (vlog-13069) tb_EVM.v(43): near " clk=5b,rst=%b,mode=%b,button1=%b,button2=%b,butto": syntax error, unexpected STRING_LITERAL, expecting ')' or ','.
# End time: 08:54:05 on Jul 08,2024, Elapsed time: 0:00:00
# Errors: 1, Warnings: 0
# ** Error: D:/modelsim_ase/win32aloem/vlog failed.
# Error in macro ./run.do line 2
# D:/modelsim_ase/win32aloem/vlog failed.
#     while executing
# "vlog tb_EVM.v"
do run.do
# ** Warning: (vlib-34) Library already exists at "work".
# Model Technology ModelSim - Intel FPGA Edition vlog 2020.1 Compiler 2020.02 Feb 28 2020
# Start time: 08:54:26 on Jul 08,2024
# vlog -reportprogress 300 tb_EVM.v 
# -- Compiling module button_control
# -- Compiling module mode_control
# -- Compiling module Vote_Logger
# -- Compiling module voting_machine
# -- Compiling module tb
# ** Error: (vlog-13069) tb_EVM.v(43): syntax error, unexpected STRING_LITERAL, expecting ')' or ','.
# End time: 08:54:26 on Jul 08,2024, Elapsed time: 0:00:00
# Errors: 1, Warnings: 0
# ** Error: D:/modelsim_ase/win32aloem/vlog failed.
# Error in macro ./run.do line 2
# D:/modelsim_ase/win32aloem/vlog failed.
#     while executing
# "vlog tb_EVM.v"
do run.do
# ** Warning: (vlib-34) Library already exists at "work".
# Model Technology ModelSim - Intel FPGA Edition vlog 2020.1 Compiler 2020.02 Feb 28 2020
# Start time: 08:55:34 on Jul 08,2024
# vlog -reportprogress 300 tb_EVM.v 
# -- Compiling module button_control
# -- Compiling module mode_control
# -- Compiling module Vote_Logger
# -- Compiling module voting_machine
# -- Compiling module tb
# ** Error: (vlog-13069) tb_EVM.v(43): near " clk=%b,rst=%b,mode=%b,button1=%b,button2=%b,butto": syntax error, unexpected STRING_LITERAL, expecting ')' or ','.
# End time: 08:55:34 on Jul 08,2024, Elapsed time: 0:00:00
# Errors: 1, Warnings: 0
# ** Error: D:/modelsim_ase/win32aloem/vlog failed.
# Error in macro ./run.do line 2
# D:/modelsim_ase/win32aloem/vlog failed.
#     while executing
# "vlog tb_EVM.v"
do run.do
# ** Warning: (vlib-34) Library already exists at "work".
# Model Technology ModelSim - Intel FPGA Edition vlog 2020.1 Compiler 2020.02 Feb 28 2020
# Start time: 08:56:11 on Jul 08,2024
# vlog -reportprogress 300 tb_EVM.v 
# -- Compiling module button_control
# -- Compiling module mode_control
# -- Compiling module Vote_Logger
# -- Compiling module voting_machine
# -- Compiling module tb
# 
# Top level modules:
# 	Vote_Logger
# 	tb
# End time: 08:56:11 on Jul 08,2024, Elapsed time: 0:00:00
# Errors: 0, Warnings: 0
# vsim tb 
# Start time: 08:56:12 on Jul 08,2024
# Loading work.tb
# Loading work.voting_machine
# Loading work.button_control
# ** Error: (vsim-3033) Instantiation of 'Voter_Logger' failed. The design unit was not found.
#    Time: 0 ps  Iteration: 0  Instance: /tb/dut File: EVM_design.v Line: 100
#         Searched libraries:
#             D:/Gvim/Verilog/Projects/Voting Machine(EVM)/work
# Loading work.mode_control
# Error loading design
# Error: Error loading design
#        Pausing macro execution
# MACRO ./run.do PAUSED at line 3
do run.do
# ** Warning: (vlib-34) Library already exists at "work".
# Model Technology ModelSim - Intel FPGA Edition vlog 2020.1 Compiler 2020.02 Feb 28 2020
# Start time: 08:57:09 on Jul 08,2024
# vlog -reportprogress 300 tb_EVM.v 
# -- Compiling module button_control
# -- Compiling module mode_control
# -- Compiling module Voter_Logger
# -- Compiling module voting_machine
# -- Compiling module tb
# 
# Top level modules:
# 	tb
# End time: 08:57:09 on Jul 08,2024, Elapsed time: 0:00:00
# Errors: 0, Warnings: 0
# vsim tb 
# Start time: 08:56:12 on Jul 08,2024
# Loading work.tb
# Loading work.voting_machine
# Loading work.button_control
# Loading work.Voter_Logger
# Loading work.mode_control
# ** Error: (vsim-3063) Port 'cand1_vote_valid' not found in the connected module (4th connection).
#    Time: 0 ps  Iteration: 0  Instance: /tb/dut/vl File: EVM_design.v Line: 100
# ** Error: (vsim-3063) Port 'cand2_vote_valid' not found in the connected module (5th connection).
#    Time: 0 ps  Iteration: 0  Instance: /tb/dut/vl File: EVM_design.v Line: 100
# ** Error: (vsim-3063) Port 'cand3_vote_valid' not found in the connected module (6th connection).
#    Time: 0 ps  Iteration: 0  Instance: /tb/dut/vl File: EVM_design.v Line: 100
# ** Error: (vsim-3063) Port 'cand4_vote_valid' not found in the connected module (7th connection).
#    Time: 0 ps  Iteration: 0  Instance: /tb/dut/vl File: EVM_design.v Line: 100
# ** Error (suppressible): (vsim-3053) Illegal output or inout port connection for port 'leds'.
#    Time: 0 ps  Iteration: 0  Instance: /tb/dut/mc File: EVM_design.v Line: 102
# Error loading design
# Error: Error loading design
#        Pausing macro execution
# MACRO ./run.do PAUSED at line 3
do run.do
# ** Warning: (vlib-34) Library already exists at "work".
# Model Technology ModelSim - Intel FPGA Edition vlog 2020.1 Compiler 2020.02 Feb 28 2020
# Start time: 09:00:33 on Jul 08,2024
# vlog -reportprogress 300 tb_EVM.v 
# -- Compiling module button_control
# -- Compiling module mode_control
# -- Compiling module Voter_Logger
# -- Compiling module voting_machine
# -- Compiling module tb
# 
# Top level modules:
# 	tb
# End time: 09:00:33 on Jul 08,2024, Elapsed time: 0:00:00
# Errors: 0, Warnings: 0
# vsim tb 
# Start time: 08:56:12 on Jul 08,2024
# Loading work.tb
# Loading work.voting_machine
# Loading work.button_control
# Loading work.Voter_Logger
# Loading work.mode_control
# ** Error: (vsim-3063) Port 'cand1_vote_valid' not found in the connected module (4th connection).
#    Time: 0 ps  Iteration: 0  Instance: /tb/dut/vl File: EVM_design.v Line: 100
# ** Error: (vsim-3063) Port 'cand2_vote_valid' not found in the connected module (5th connection).
#    Time: 0 ps  Iteration: 0  Instance: /tb/dut/vl File: EVM_design.v Line: 100
# ** Error: (vsim-3063) Port 'cand3_vote_valid' not found in the connected module (6th connection).
#    Time: 0 ps  Iteration: 0  Instance: /tb/dut/vl File: EVM_design.v Line: 100
# ** Error: (vsim-3063) Port 'cand4_vote_valid' not found in the connected module (7th connection).
#    Time: 0 ps  Iteration: 0  Instance: /tb/dut/vl File: EVM_design.v Line: 100
# ** Error (suppressible): (vsim-3053) Illegal output or inout port connection for port 'leds'.
#    Time: 0 ps  Iteration: 0  Instance: /tb/dut/mc File: EVM_design.v Line: 102
# Error loading design
# Error: Error loading design
#        Pausing macro execution
# MACRO ./run.do PAUSED at line 3
do run.do
# ** Warning: (vlib-34) Library already exists at "work".
# Model Technology ModelSim - Intel FPGA Edition vlog 2020.1 Compiler 2020.02 Feb 28 2020
# Start time: 09:03:34 on Jul 08,2024
# vlog -reportprogress 300 tb_EVM.v 
# -- Compiling module button_control
# -- Compiling module mode_control
# -- Compiling module Voter_Logger
# -- Compiling module voting_machine
# -- Compiling module tb
# 
# Top level modules:
# 	tb
# End time: 09:03:34 on Jul 08,2024, Elapsed time: 0:00:00
# Errors: 0, Warnings: 0
# vsim tb 
# Start time: 08:56:12 on Jul 08,2024
# Loading work.tb
# Loading work.voting_machine
# Loading work.button_control
# Loading work.Voter_Logger
# Loading work.mode_control
# ** Error: (vsim-3063) Port 'cand1_vote_valid' not found in the connected module (4th connection).
#    Time: 0 ps  Iteration: 0  Instance: /tb/dut/vl File: EVM_design.v Line: 100
# ** Error: (vsim-3063) Port 'cand2_vote_valid' not found in the connected module (5th connection).
#    Time: 0 ps  Iteration: 0  Instance: /tb/dut/vl File: EVM_design.v Line: 100
# ** Error: (vsim-3063) Port 'cand3_vote_valid' not found in the connected module (6th connection).
#    Time: 0 ps  Iteration: 0  Instance: /tb/dut/vl File: EVM_design.v Line: 100
# ** Error: (vsim-3063) Port 'cand4_vote_valid' not found in the connected module (7th connection).
#    Time: 0 ps  Iteration: 0  Instance: /tb/dut/vl File: EVM_design.v Line: 100
# ** Error (suppressible): (vsim-3053) Illegal output or inout port connection for port 'leds'.
#    Time: 0 ps  Iteration: 0  Instance: /tb/dut/mc File: EVM_design.v Line: 112
# Error loading design
# Error: Error loading design
#        Pausing macro execution
# MACRO ./run.do PAUSED at line 3
do run.do
# ** Warning: (vlib-34) Library already exists at "work".
# Model Technology ModelSim - Intel FPGA Edition vlog 2020.1 Compiler 2020.02 Feb 28 2020
# Start time: 09:22:44 on Jul 08,2024
# vlog -reportprogress 300 tb_EVM.v 
# -- Compiling module button_control
# -- Compiling module mode_control
# -- Compiling module Voter_Logger
# -- Compiling module voting_machine
# -- Compiling module tb
# 
# Top level modules:
# 	tb
# End time: 09:22:44 on Jul 08,2024, Elapsed time: 0:00:00
# Errors: 0, Warnings: 0
# vsim tb 
# Start time: 08:56:12 on Jul 08,2024
# Loading work.tb
# Loading work.voting_machine
# Loading work.button_control
# Loading work.Voter_Logger
# Loading work.mode_control
# ** Error: (vsim-3063) Port 'cand1_vote_valid' not found in the connected module (4th connection).
#    Time: 0 ps  Iteration: 0  Instance: /tb/dut/vl File: EVM_design.v Line: 100
# ** Error: (vsim-3063) Port 'cand2_vote_valid' not found in the connected module (5th connection).
#    Time: 0 ps  Iteration: 0  Instance: /tb/dut/vl File: EVM_design.v Line: 100
# ** Error: (vsim-3063) Port 'cand3_vote_valid' not found in the connected module (6th connection).
#    Time: 0 ps  Iteration: 0  Instance: /tb/dut/vl File: EVM_design.v Line: 100
# ** Error: (vsim-3063) Port 'cand4_vote_valid' not found in the connected module (7th connection).
#    Time: 0 ps  Iteration: 0  Instance: /tb/dut/vl File: EVM_design.v Line: 100
# Error loading design
# Error: Error loading design
#        Pausing macro execution
# MACRO ./run.do PAUSED at line 3
do run.do
# ** Warning: (vlib-34) Library already exists at "work".
# Model Technology ModelSim - Intel FPGA Edition vlog 2020.1 Compiler 2020.02 Feb 28 2020
# Start time: 10:00:28 on Jul 08,2024
# vlog -reportprogress 300 tb_EVM.v 
# -- Compiling module button_control
# -- Compiling module mode_control
# -- Compiling module Voter_Logger
# -- Compiling module voting_machine
# -- Compiling module tb
# 
# Top level modules:
# 	tb
# End time: 10:00:28 on Jul 08,2024, Elapsed time: 0:00:00
# Errors: 0, Warnings: 0
# vsim tb 
# Start time: 08:56:12 on Jul 08,2024
# Loading work.tb
# Loading work.voting_machine
# Loading work.button_control
# Loading work.Voter_Logger
# Loading work.mode_control
# ** Note: $finish    : tb_EVM.v(40)
#    Time: 395 ns  Iteration: 0  Instance: /tb
# 1
# Break in Module tb at tb_EVM.v line 40
do run.do
# ** Warning: (vlib-34) Library already exists at "work".
# Model Technology ModelSim - Intel FPGA Edition vlog 2020.1 Compiler 2020.02 Feb 28 2020
# Start time: 10:02:29 on Jul 08,2024
# vlog -reportprogress 300 tb_EVM.v 
# -- Compiling module button_control
# -- Compiling module mode_control
# -- Compiling module Voter_Logger
# -- Compiling module voting_machine
# -- Compiling module tb
# ** Error: (vlog-13069) tb_EVM.v(43): near " clk=%b,rst=%b,mode=%b,button1=%b,button2=%b,butto": syntax error, unexpected STRING_LITERAL, expecting ')' or ','.
# End time: 10:02:29 on Jul 08,2024, Elapsed time: 0:00:00
# Errors: 1, Warnings: 0
# ** Error: D:/modelsim_ase/win32aloem/vlog failed.
# Error in macro ./run.do line 2
# D:/modelsim_ase/win32aloem/vlog failed.
#     while executing
# "vlog tb_EVM.v"
do run.do
# ** Warning: (vlib-34) Library already exists at "work".
# Model Technology ModelSim - Intel FPGA Edition vlog 2020.1 Compiler 2020.02 Feb 28 2020
# Start time: 10:11:07 on Jul 08,2024
# vlog -reportprogress 300 tb_EVM.v 
# -- Compiling module button_control
# -- Compiling module mode_control
# -- Compiling module Voter_Logger
# -- Compiling module voting_machine
# -- Compiling module tb
# 
# Top level modules:
# 	tb
# End time: 10:11:07 on Jul 08,2024, Elapsed time: 0:00:00
# Errors: 0, Warnings: 0
# End time: 10:11:11 on Jul 08,2024, Elapsed time: 1:14:59
# Errors: 21, Warnings: 0
# vsim tb 
# Start time: 10:11:11 on Jul 08,2024
# Loading work.tb
# Loading work.voting_machine
# Loading work.button_control
# Loading work.Voter_Logger
# Loading work.mode_control
#                    0 clk=0,rst=1,mode=0,button1=0,button2=0,button3=0,button4=0,led=  x
#                    5 clk=1,rst=1,mode=0,button1=0,button2=0,button3=0,button4=0,led=  0
#                   10 clk=0,rst=1,mode=0,button1=0,button2=0,button3=0,button4=0,led=  0
#                   15 clk=1,rst=0,mode=0,button1=0,button2=0,button3=0,button4=0,led=  0
#                   20 clk=0,rst=0,mode=0,button1=0,button2=0,button3=0,button4=0,led=  0
#                   25 clk=1,rst=0,mode=0,button1=0,button2=0,button3=0,button4=0,led=  0
#                   30 clk=0,rst=0,mode=0,button1=0,button2=0,button3=0,button4=0,led=  0
#                   35 clk=1,rst=0,mode=0,button1=0,button2=0,button3=0,button4=0,led=  0
#                   40 clk=0,rst=0,mode=0,button1=0,button2=0,button3=0,button4=0,led=  0
#                   45 clk=1,rst=0,mode=0,button1=0,button2=0,button3=0,button4=0,led=  0
#                   50 clk=0,rst=0,mode=0,button1=0,button2=0,button3=0,button4=0,led=  0
#                   55 clk=1,rst=0,mode=0,button1=0,button2=0,button3=0,button4=0,led=  0
#                   60 clk=0,rst=0,mode=0,button1=0,button2=0,button3=0,button4=0,led=  0
#                   65 clk=1,rst=0,mode=0,button1=0,button2=0,button3=0,button4=0,led=  0
#                   70 clk=0,rst=0,mode=0,button1=0,button2=0,button3=0,button4=0,led=  0
#                   75 clk=1,rst=0,mode=0,button1=0,button2=0,button3=0,button4=0,led=  0
#                   80 clk=0,rst=0,mode=0,button1=0,button2=0,button3=0,button4=0,led=  0
#                   85 clk=1,rst=0,mode=0,button1=0,button2=0,button3=0,button4=0,led=  0
#                   90 clk=0,rst=0,mode=0,button1=0,button2=0,button3=0,button4=0,led=  0
#                   95 clk=1,rst=0,mode=0,button1=0,button2=0,button3=0,button4=0,led=  0
#                  100 clk=0,rst=0,mode=0,button1=0,button2=0,button3=0,button4=0,led=  0
#                  105 clk=1,rst=0,mode=0,button1=0,button2=0,button3=0,button4=0,led=  0
#                  110 clk=0,rst=0,mode=0,button1=0,button2=0,button3=0,button4=0,led=  0
#                  115 clk=1,rst=0,mode=0,button1=1,button2=0,button3=0,button4=0,led=  0
#                  120 clk=0,rst=0,mode=0,button1=1,button2=0,button3=0,button4=0,led=  0
#                  125 clk=1,rst=0,mode=0,button1=0,button2=1,button3=0,button4=0,led=  0
#                  130 clk=0,rst=0,mode=0,button1=0,button2=1,button3=0,button4=0,led=  0
#                  135 clk=1,rst=0,mode=0,button1=0,button2=0,button3=1,button4=0,led=  0
#                  140 clk=0,rst=0,mode=0,button1=0,button2=0,button3=1,button4=0,led=  0
#                  145 clk=1,rst=0,mode=0,button1=0,button2=0,button3=0,button4=1,led=  0
#                  150 clk=0,rst=0,mode=0,button1=0,button2=0,button3=0,button4=1,led=  0
#                  155 clk=1,rst=0,mode=0,button1=0,button2=1,button3=0,button4=0,led=  0
#                  160 clk=0,rst=0,mode=0,button1=0,button2=1,button3=0,button4=0,led=  0
#                  165 clk=1,rst=0,mode=1,button1=0,button2=0,button3=1,button4=0,led=  0
#                  170 clk=0,rst=0,mode=1,button1=0,button2=0,button3=1,button4=0,led=  0
#                  175 clk=1,rst=0,mode=1,button1=0,button2=0,button3=0,button4=1,led=  0
#                  180 clk=0,rst=0,mode=1,button1=0,button2=0,button3=0,button4=1,led=  0
#                  185 clk=1,rst=0,mode=1,button1=0,button2=1,button3=0,button4=0,led=  0
#                  190 clk=0,rst=0,mode=1,button1=0,button2=1,button3=0,button4=0,led=  0
#                  195 clk=1,rst=0,mode=1,button1=0,button2=0,button3=1,button4=0,led=  0
#                  200 clk=0,rst=0,mode=1,button1=0,button2=0,button3=1,button4=0,led=  0
#                  205 clk=1,rst=1,mode=0,button1=0,button2=0,button3=0,button4=0,led=  0
#                  210 clk=0,rst=1,mode=0,button1=0,button2=0,button3=0,button4=0,led=  0
#                  215 clk=1,rst=1,mode=0,button1=0,button2=0,button3=0,button4=0,led=  0
#                  220 clk=0,rst=1,mode=0,button1=0,button2=0,button3=0,button4=0,led=  0
#                  225 clk=1,rst=1,mode=0,button1=0,button2=0,button3=0,button4=0,led=  0
#                  230 clk=0,rst=1,mode=0,button1=0,button2=0,button3=0,button4=0,led=  0
#                  235 clk=1,rst=1,mode=0,button1=0,button2=0,button3=0,button4=0,led=  0
#                  240 clk=0,rst=1,mode=0,button1=0,button2=0,button3=0,button4=0,led=  0
#                  245 clk=1,rst=1,mode=0,button1=0,button2=0,button3=0,button4=0,led=  0
#                  250 clk=0,rst=1,mode=0,button1=0,button2=0,button3=0,button4=0,led=  0
#                  255 clk=1,rst=1,mode=0,button1=0,button2=0,button3=0,button4=0,led=  0
#                  260 clk=0,rst=1,mode=0,button1=0,button2=0,button3=0,button4=0,led=  0
#                  265 clk=1,rst=1,mode=0,button1=0,button2=0,button3=0,button4=0,led=  0
#                  270 clk=0,rst=1,mode=0,button1=0,button2=0,button3=0,button4=0,led=  0
#                  275 clk=1,rst=1,mode=0,button1=0,button2=0,button3=0,button4=0,led=  0
#                  280 clk=0,rst=1,mode=0,button1=0,button2=0,button3=0,button4=0,led=  0
#                  285 clk=1,rst=1,mode=0,button1=0,button2=0,button3=0,button4=0,led=  0
#                  290 clk=0,rst=1,mode=0,button1=0,button2=0,button3=0,button4=0,led=  0
#                  295 clk=1,rst=1,mode=0,button1=0,button2=0,button3=0,button4=0,led=  0
#                  300 clk=0,rst=1,mode=0,button1=0,button2=0,button3=0,button4=0,led=  0
#                  305 clk=1,rst=0,mode=0,button1=1,button2=0,button3=0,button4=0,led=  0
#                  310 clk=0,rst=0,mode=0,button1=1,button2=0,button3=0,button4=0,led=  0
#                  315 clk=1,rst=0,mode=0,button1=0,button2=1,button3=0,button4=0,led=  0
#                  320 clk=0,rst=0,mode=0,button1=0,button2=1,button3=0,button4=0,led=  0
#                  325 clk=1,rst=0,mode=0,button1=0,button2=0,button3=1,button4=0,led=  0
#                  330 clk=0,rst=0,mode=0,button1=0,button2=0,button3=1,button4=0,led=  0
#                  335 clk=1,rst=0,mode=0,button1=0,button2=0,button3=0,button4=1,led=  0
#                  340 clk=0,rst=0,mode=0,button1=0,button2=0,button3=0,button4=1,led=  0
#                  345 clk=1,rst=0,mode=0,button1=0,button2=1,button3=0,button4=0,led=  0
#                  350 clk=0,rst=0,mode=0,button1=0,button2=1,button3=0,button4=0,led=  0
#                  355 clk=1,rst=0,mode=1,button1=0,button2=0,button3=1,button4=0,led=  0
#                  360 clk=0,rst=0,mode=1,button1=0,button2=0,button3=1,button4=0,led=  0
#                  365 clk=1,rst=0,mode=1,button1=0,button2=0,button3=0,button4=1,led=  0
#                  370 clk=0,rst=0,mode=1,button1=0,button2=0,button3=0,button4=1,led=  0
#                  375 clk=1,rst=0,mode=1,button1=0,button2=1,button3=0,button4=0,led=  0
#                  380 clk=0,rst=0,mode=1,button1=0,button2=1,button3=0,button4=0,led=  0
#                  385 clk=1,rst=0,mode=1,button1=0,button2=0,button3=1,button4=0,led=  0
#                  390 clk=0,rst=0,mode=1,button1=0,button2=0,button3=1,button4=0,led=  0
# ** Note: $finish    : tb_EVM.v(40)
#    Time: 395 ns  Iteration: 0  Instance: /tb
# 1
# Break in Module tb at tb_EVM.v line 40
do run.do
# ** Warning: (vlib-34) Library already exists at "work".
# Model Technology ModelSim - Intel FPGA Edition vlog 2020.1 Compiler 2020.02 Feb 28 2020
# Start time: 10:24:39 on Jul 08,2024
# vlog -reportprogress 300 tb_EVM.v 
# -- Compiling module button_control
# -- Compiling module mode_control
# -- Compiling module Voter_Logger
# -- Compiling module voting_machine
# -- Compiling module tb
# 
# Top level modules:
# 	tb
# End time: 10:24:39 on Jul 08,2024, Elapsed time: 0:00:00
# Errors: 0, Warnings: 0
# End time: 10:24:41 on Jul 08,2024, Elapsed time: 0:13:30
# Errors: 0, Warnings: 0
# vsim tb 
# Start time: 10:24:41 on Jul 08,2024
# Loading work.tb
# Loading work.voting_machine
# Loading work.button_control
# Loading work.Voter_Logger
# Loading work.mode_control
#                    0 clk=0,rst=1,mode=0,button1=0,button2=0,button3=0,button4=0,led=  x
#                    5 clk=1,rst=1,mode=0,button1=0,button2=0,button3=0,button4=0,led=  0
#                   10 clk=0,rst=1,mode=0,button1=0,button2=0,button3=0,button4=0,led=  0
#                   15 clk=1,rst=0,mode=0,button1=0,button2=0,button3=0,button4=0,led=  0
#                   20 clk=0,rst=0,mode=0,button1=0,button2=0,button3=0,button4=0,led=  0
#                   25 clk=1,rst=0,mode=0,button1=0,button2=0,button3=0,button4=0,led=  0
#                   30 clk=0,rst=0,mode=0,button1=0,button2=0,button3=0,button4=0,led=  0
#                   35 clk=1,rst=0,mode=0,button1=0,button2=0,button3=0,button4=0,led=  0
#                   40 clk=0,rst=0,mode=0,button1=0,button2=0,button3=0,button4=0,led=  0
#                   45 clk=1,rst=0,mode=0,button1=0,button2=0,button3=0,button4=0,led=  0
#                   50 clk=0,rst=0,mode=0,button1=0,button2=0,button3=0,button4=0,led=  0
#                   55 clk=1,rst=0,mode=0,button1=0,button2=0,button3=0,button4=0,led=  0
#                   60 clk=0,rst=0,mode=0,button1=0,button2=0,button3=0,button4=0,led=  0
#                   65 clk=1,rst=0,mode=0,button1=0,button2=0,button3=0,button4=0,led=  0
#                   70 clk=0,rst=0,mode=0,button1=0,button2=0,button3=0,button4=0,led=  0
#                   75 clk=1,rst=0,mode=0,button1=0,button2=0,button3=0,button4=0,led=  0
#                   80 clk=0,rst=0,mode=0,button1=0,button2=0,button3=0,button4=0,led=  0
#                   85 clk=1,rst=0,mode=0,button1=0,button2=0,button3=0,button4=0,led=  0
#                   90 clk=0,rst=0,mode=0,button1=0,button2=0,button3=0,button4=0,led=  0
#                   95 clk=1,rst=0,mode=0,button1=0,button2=0,button3=0,button4=0,led=  0
#                  100 clk=0,rst=0,mode=0,button1=0,button2=0,button3=0,button4=0,led=  0
#                  105 clk=1,rst=0,mode=0,button1=0,button2=0,button3=0,button4=0,led=  0
#                  110 clk=0,rst=0,mode=0,button1=0,button2=0,button3=0,button4=0,led=  0
#                  115 clk=1,rst=0,mode=0,button1=0,button2=0,button3=0,button4=0,led=  0
#                  120 clk=0,rst=0,mode=0,button1=1,button2=0,button3=0,button4=0,led=  0
#                  125 clk=1,rst=0,mode=0,button1=1,button2=0,button3=0,button4=0,led=  0
#                  130 clk=0,rst=0,mode=0,button1=0,button2=0,button3=0,button4=0,led=  0
#                  135 clk=1,rst=0,mode=0,button1=1,button2=0,button3=0,button4=0,led=  0
#                  140 clk=0,rst=0,mode=0,button1=1,button2=0,button3=0,button4=0,led=  0
#                  145 clk=1,rst=0,mode=0,button1=1,button2=0,button3=0,button4=0,led=  0
#                  150 clk=0,rst=0,mode=0,button1=1,button2=0,button3=0,button4=0,led=  0
#                  155 clk=1,rst=0,mode=0,button1=1,button2=0,button3=0,button4=0,led=  0
#                  160 clk=0,rst=0,mode=0,button1=1,button2=0,button3=0,button4=0,led=  0
#                  165 clk=1,rst=0,mode=0,button1=1,button2=0,button3=0,button4=0,led=  0
#                  170 clk=0,rst=0,mode=0,button1=1,button2=0,button3=0,button4=0,led=  0
#                  175 clk=1,rst=0,mode=0,button1=1,button2=0,button3=0,button4=0,led=  0
#                  180 clk=0,rst=0,mode=0,button1=1,button2=0,button3=0,button4=0,led=  0
#                  185 clk=1,rst=0,mode=0,button1=1,button2=0,button3=0,button4=0,led=  0
#                  190 clk=0,rst=0,mode=0,button1=1,button2=0,button3=0,button4=0,led=  0
#                  195 clk=1,rst=0,mode=0,button1=1,button2=0,button3=0,button4=0,led=  0
#                  200 clk=0,rst=0,mode=0,button1=1,button2=0,button3=0,button4=0,led=  0
#                  205 clk=1,rst=0,mode=0,button1=1,button2=0,button3=0,button4=0,led=  0
#                  210 clk=0,rst=0,mode=0,button1=1,button2=0,button3=0,button4=0,led=  0
#                  215 clk=1,rst=0,mode=0,button1=1,button2=0,button3=0,button4=0,led=  0
#                  220 clk=0,rst=0,mode=0,button1=1,button2=0,button3=0,button4=0,led=  0
#                  225 clk=1,rst=0,mode=0,button1=1,button2=0,button3=0,button4=0,led=  0
#                  230 clk=0,rst=0,mode=0,button1=1,button2=0,button3=0,button4=0,led=  0
#                  235 clk=1,rst=0,mode=0,button1=1,button2=0,button3=0,button4=0,led=  0
#                  240 clk=0,rst=0,mode=0,button1=1,button2=0,button3=0,button4=0,led=  0
#                  245 clk=1,rst=0,mode=0,button1=1,button2=0,button3=0,button4=0,led=255
#                  250 clk=0,rst=0,mode=0,button1=1,button2=0,button3=0,button4=0,led=255
#                  255 clk=1,rst=0,mode=0,button1=1,button2=0,button3=0,button4=0,led=255
#                  260 clk=0,rst=0,mode=0,button1=1,button2=0,button3=0,button4=0,led=255
#                  265 clk=1,rst=0,mode=0,button1=1,button2=0,button3=0,button4=0,led=255
#                  270 clk=0,rst=0,mode=0,button1=1,button2=0,button3=0,button4=0,led=255
#                  275 clk=1,rst=0,mode=0,button1=1,button2=0,button3=0,button4=0,led=255
#                  280 clk=0,rst=0,mode=0,button1=1,button2=0,button3=0,button4=0,led=255
#                  285 clk=1,rst=0,mode=0,button1=1,button2=0,button3=0,button4=0,led=255
#                  290 clk=0,rst=0,mode=0,button1=1,button2=0,button3=0,button4=0,led=255
#                  295 clk=1,rst=0,mode=0,button1=1,button2=0,button3=0,button4=0,led=255
#                  300 clk=0,rst=0,mode=0,button1=1,button2=0,button3=0,button4=0,led=255
#                  305 clk=1,rst=0,mode=0,button1=1,button2=0,button3=0,button4=0,led=255
#                  310 clk=0,rst=0,mode=0,button1=1,button2=0,button3=0,button4=0,led=255
#                  315 clk=1,rst=0,mode=0,button1=1,button2=0,button3=0,button4=0,led=255
#                  320 clk=0,rst=0,mode=0,button1=1,button2=0,button3=0,button4=0,led=255
#                  325 clk=1,rst=0,mode=0,button1=1,button2=0,button3=0,button4=0,led=255
#                  330 clk=0,rst=0,mode=0,button1=1,button2=0,button3=0,button4=0,led=255
